%YAML 1.1
%TAG !u! tag:unity3d.com,2011:
--- !u!1001 &4088806765876177463
PrefabInstance:
  m_ObjectHideFlags: 0
  serializedVersion: 2
  m_Modification:
    serializedVersion: 3
    m_TransformParent: {fileID: 0}
    m_Modifications:
    - target: {fileID: 1328306088484701432, guid: 03ddb6ced353d984d88c433f600e0e02, type: 3}
      propertyPath: m_LocalPosition.x
      value: 0
      objectReference: {fileID: 0}
    - target: {fileID: 1328306088484701432, guid: 03ddb6ced353d984d88c433f600e0e02, type: 3}
      propertyPath: m_LocalPosition.y
      value: 0.8
      objectReference: {fileID: 0}
    - target: {fileID: 1784879090103451538, guid: 03ddb6ced353d984d88c433f600e0e02, type: 3}
      propertyPath: m_LocalPosition.y
      value: 1.6
      objectReference: {fileID: 0}
    - target: {fileID: 5663824605921766952, guid: 03ddb6ced353d984d88c433f600e0e02, type: 3}
      propertyPath: m_Size.x
      value: 0.8
      objectReference: {fileID: 0}
    - target: {fileID: 5663824605921766952, guid: 03ddb6ced353d984d88c433f600e0e02, type: 3}
      propertyPath: m_Sprite
      value: 
      objectReference: {fileID: 21300000, guid: 1f24fd0e327a034489ce14db37b2599c, type: 3}
    - target: {fileID: 5663824605921766952, guid: 03ddb6ced353d984d88c433f600e0e02, type: 3}
      propertyPath: m_WasSpriteAssigned
      value: 1
      objectReference: {fileID: 0}
    - target: {fileID: 5710393097482664104, guid: 03ddb6ced353d984d88c433f600e0e02, type: 3}
      propertyPath: CellId.y
      value: 2
      objectReference: {fileID: 0}
    - target: {fileID: 5860120730877228803, guid: 03ddb6ced353d984d88c433f600e0e02, type: 3}
      propertyPath: m_Size.x
      value: 0.8
      objectReference: {fileID: 0}
    - target: {fileID: 5860120730877228803, guid: 03ddb6ced353d984d88c433f600e0e02, type: 3}
      propertyPath: m_Sprite
      value: 
      objectReference: {fileID: 21300000, guid: 1f24fd0e327a034489ce14db37b2599c, type: 3}
    - target: {fileID: 5860120730877228803, guid: 03ddb6ced353d984d88c433f600e0e02, type: 3}
      propertyPath: m_WasSpriteAssigned
      value: 1
      objectReference: {fileID: 0}
    - target: {fileID: 6264458566423243072, guid: 03ddb6ced353d984d88c433f600e0e02, type: 3}
      propertyPath: m_Size.x
      value: 0.8
      objectReference: {fileID: 0}
    - target: {fileID: 6264458566423243072, guid: 03ddb6ced353d984d88c433f600e0e02, type: 3}
      propertyPath: m_Sprite
      value: 
      objectReference: {fileID: 21300000, guid: 1f24fd0e327a034489ce14db37b2599c, type: 3}
    - target: {fileID: 6264458566423243072, guid: 03ddb6ced353d984d88c433f600e0e02, type: 3}
      propertyPath: m_WasSpriteAssigned
      value: 1
      objectReference: {fileID: 0}
    - target: {fileID: 6659044899335409320, guid: 03ddb6ced353d984d88c433f600e0e02, type: 3}
      propertyPath: CellId.x
      value: 0
      objectReference: {fileID: 0}
    - target: {fileID: 6659044899335409320, guid: 03ddb6ced353d984d88c433f600e0e02, type: 3}
      propertyPath: CellId.y
      value: 1
      objectReference: {fileID: 0}
    - target: {fileID: 7096693513688769749, guid: 03ddb6ced353d984d88c433f600e0e02, type: 3}
      propertyPath: m_Size.x
      value: 0.8
      objectReference: {fileID: 0}
    - target: {fileID: 7096693513688769749, guid: 03ddb6ced353d984d88c433f600e0e02, type: 3}
      propertyPath: m_Sprite
      value: 
      objectReference: {fileID: 21300000, guid: 1f24fd0e327a034489ce14db37b2599c, type: 3}
    - target: {fileID: 7096693513688769749, guid: 03ddb6ced353d984d88c433f600e0e02, type: 3}
      propertyPath: m_WasSpriteAssigned
      value: 1
      objectReference: {fileID: 0}
    - target: {fileID: 8542673617932217919, guid: 03ddb6ced353d984d88c433f600e0e02, type: 3}
      propertyPath: m_Name
      value: ShapeJ
      objectReference: {fileID: 0}
    - target: {fileID: 8750338404692092656, guid: 03ddb6ced353d984d88c433f600e0e02, type: 3}
      propertyPath: m_LocalPosition.x
      value: 0
      objectReference: {fileID: 0}
    - target: {fileID: 8750338404692092656, guid: 03ddb6ced353d984d88c433f600e0e02, type: 3}
      propertyPath: m_LocalPosition.y
      value: 0
      objectReference: {fileID: 0}
    - target: {fileID: 8750338404692092656, guid: 03ddb6ced353d984d88c433f600e0e02, type: 3}
      propertyPath: m_LocalPosition.z
      value: 0
      objectReference: {fileID: 0}
    - target: {fileID: 8750338404692092656, guid: 03ddb6ced353d984d88c433f600e0e02, type: 3}
      propertyPath: m_LocalRotation.w
      value: 1
      objectReference: {fileID: 0}
    - target: {fileID: 8750338404692092656, guid: 03ddb6ced353d984d88c433f600e0e02, type: 3}
      propertyPath: m_LocalRotation.x
      value: 0
      objectReference: {fileID: 0}
    - target: {fileID: 8750338404692092656, guid: 03ddb6ced353d984d88c433f600e0e02, type: 3}
      propertyPath: m_LocalRotation.y
      value: 0
      objectReference: {fileID: 0}
    - target: {fileID: 8750338404692092656, guid: 03ddb6ced353d984d88c433f600e0e02, type: 3}
      propertyPath: m_LocalRotation.z
      value: 0
      objectReference: {fileID: 0}
    - target: {fileID: 8750338404692092656, guid: 03ddb6ced353d984d88c433f600e0e02, type: 3}
      propertyPath: m_LocalEulerAnglesHint.x
      value: 0
      objectReference: {fileID: 0}
    - target: {fileID: 8750338404692092656, guid: 03ddb6ced353d984d88c433f600e0e02, type: 3}
      propertyPath: m_LocalEulerAnglesHint.y
      value: 0
      objectReference: {fileID: 0}
    - target: {fileID: 8750338404692092656, guid: 03ddb6ced353d984d88c433f600e0e02, type: 3}
      propertyPath: m_LocalEulerAnglesHint.z
      value: 0
      objectReference: {fileID: 0}
    m_RemovedComponents: []
    m_RemovedGameObjects: []
    m_AddedGameObjects: []
    m_AddedComponents:
    - targetCorrespondingSourceObject: {fileID: 8542673617932217919, guid: 03ddb6ced353d984d88c433f600e0e02, type: 3}
      insertIndex: -1
      addedObject: {fileID: 5292437052547129394}
  m_SourcePrefab: {fileID: 100100000, guid: 03ddb6ced353d984d88c433f600e0e02, type: 3}
--- !u!114 &204655514465165394 stripped
MonoBehaviour:
  m_CorrespondingSourceObject: {fileID: 4208975643620543077, guid: 03ddb6ced353d984d88c433f600e0e02, type: 3}
  m_PrefabInstance: {fileID: 4088806765876177463}
  m_PrefabAsset: {fileID: 0}
  m_GameObject: {fileID: 0}
  m_Enabled: 1
  m_EditorHideFlags: 0
  m_Script: {fileID: 11500000, guid: d4d8b02de62a1c94883e8266814b482a, type: 3}
  m_Name: 
  m_EditorClassIdentifier: 
--- !u!114 &3534228913246585841 stripped
MonoBehaviour:
  m_CorrespondingSourceObject: {fileID: 698698337497983430, guid: 03ddb6ced353d984d88c433f600e0e02, type: 3}
  m_PrefabInstance: {fileID: 4088806765876177463}
  m_PrefabAsset: {fileID: 0}
  m_GameObject: {fileID: 0}
  m_Enabled: 1
  m_EditorHideFlags: 0
  m_Script: {fileID: 11500000, guid: d4d8b02de62a1c94883e8266814b482a, type: 3}
  m_Name: 
  m_EditorClassIdentifier: 
--- !u!1 &5635111939503817736 stripped
GameObject:
  m_CorrespondingSourceObject: {fileID: 8542673617932217919, guid: 03ddb6ced353d984d88c433f600e0e02, type: 3}
  m_PrefabInstance: {fileID: 4088806765876177463}
  m_PrefabAsset: {fileID: 0}
--- !u!114 &5292437052547129394
MonoBehaviour:
  m_ObjectHideFlags: 0
  m_CorrespondingSourceObject: {fileID: 0}
  m_PrefabInstance: {fileID: 0}
  m_PrefabAsset: {fileID: 0}
  m_GameObject: {fileID: 5635111939503817736}
  m_Enabled: 1
  m_EditorHideFlags: 0
  m_Script: {fileID: 11500000, guid: 75949ff4b9fc2a74f87ac307c29bcec7, type: 3}
  m_Name: 
  m_EditorClassIdentifier: 
  Parts:
  - {fileID: 204655514465165394}
  - {fileID: 3534228913246585841}
  - {fileID: 7266542713426732191}
  - {fileID: 8611225893589258911}
--- !u!114 &7266542713426732191 stripped
MonoBehaviour:
  m_CorrespondingSourceObject: {fileID: 6659044899335409320, guid: 03ddb6ced353d984d88c433f600e0e02, type: 3}
  m_PrefabInstance: {fileID: 4088806765876177463}
  m_PrefabAsset: {fileID: 0}
  m_GameObject: {fileID: 0}
  m_Enabled: 1
  m_EditorHideFlags: 0
  m_Script: {fileID: 11500000, guid: d4d8b02de62a1c94883e8266814b482a, type: 3}
  m_Name: 
  m_EditorClassIdentifier: 
--- !u!114 &8611225893589258911 stripped
MonoBehaviour:
  m_CorrespondingSourceObject: {fileID: 5710393097482664104, guid: 03ddb6ced353d984d88c433f600e0e02, type: 3}
  m_PrefabInstance: {fileID: 4088806765876177463}
  m_PrefabAsset: {fileID: 0}
  m_GameObject: {fileID: 0}
  m_Enabled: 1
  m_EditorHideFlags: 0
  m_Script: {fileID: 11500000, guid: d4d8b02de62a1c94883e8266814b482a, type: 3}
  m_Name: 
  m_EditorClassIdentifier: 
